{
    "relationships": [],
    "fields": [
        {
            "fieldId": 1,
            "fieldName": "type",
            "fieldType": "Integer",
            "fieldNameCapitalized": "Type",
            "fieldNameUnderscored": "type"
        },
        {
            "fieldId": 2,
            "fieldName": "fileName",
            "fieldType": "String",
            "fieldNameCapitalized": "FileName",
            "fieldNameUnderscored": "file_name"
        }
    ],
    "fieldsContainOwnerManyToMany": false,
    "fieldsContainOneToMany": false,
    "fieldsContainLocalDate": false,
    "fieldsContainCustomTime": false,
    "fieldsContainBigDecimal": false,
    "fieldsContainDateTime": false,
    "changelogDate": "20150219120726"
}