{
    "relationships": [
        {
            "relationshipId": 1,
            "otherEntityName": "house",
            "relationshipType": "many-to-one",
            "otherEntityNameCapitalized": "House",
            "otherEntityField": "name"
        }
    ],
    "fields": [
        {
            "fieldId": 1,
            "fieldName": "extCode",
            "fieldType": "String",
            "fieldNameCapitalized": "ExtCode",
            "fieldNameUnderscored": "ext_code"
        },
        {
            "fieldId": 2,
            "fieldName": "name",
            "fieldType": "String",
            "fieldNameCapitalized": "Name",
            "fieldNameUnderscored": "name"
        },
        {
            "fieldId": 3,
            "fieldName": "domofonCode",
            "fieldType": "Integer",
            "fieldNameCapitalized": "DomofonCode",
            "fieldNameUnderscored": "domofon_code"
        },
        {
            "fieldId": 4,
            "fieldName": "gate",
            "fieldType": "Boolean",
            "fieldNameCapitalized": "Gate",
            "fieldNameUnderscored": "gate"
        }
    ],
    "fieldsContainOwnerManyToMany": false,
    "fieldsContainOneToMany": false,
    "fieldsContainLocalDate": false,
    "fieldsContainCustomTime": false,
    "fieldsContainBigDecimal": false,
    "fieldsContainDateTime": false,
    "changelogDate": "20150217221205"
}