{
    "relationships": [
        {
            "relationshipId": 1,
            "otherEntityName": "affiliate",
            "relationshipType": "many-to-one",
            "otherEntityNameCapitalized": "Affiliate",
            "otherEntityField": "y"
        }
    ],
    "fields": [
        {
            "fieldId": 1,
            "fieldName": "extCode",
            "fieldType": "String",
            "fieldNameCapitalized": "ExtCode",
            "fieldNameUnderscored": "ext_code"
        },
        {
            "fieldId": 2,
            "fieldName": "fio",
            "fieldType": "String",
            "fieldNameCapitalized": "Fio",
            "fieldNameUnderscored": "fio"
        },
        {
            "fieldId": 3,
            "fieldName": "login",
            "fieldType": "String",
            "fieldNameCapitalized": "Login",
            "fieldNameUnderscored": "login"
        },
        {
            "fieldId": 4,
            "fieldName": "password",
            "fieldType": "String",
            "fieldNameCapitalized": "Password",
            "fieldNameUnderscored": "password"
        }
    ],
    "fieldsContainOwnerManyToMany": false,
    "fieldsContainOneToMany": false,
    "fieldsContainLocalDate": false,
    "fieldsContainCustomTime": false,
    "fieldsContainBigDecimal": false,
    "fieldsContainDateTime": false,
    "changelogDate": "20150128102320"
}