{
    "relationships": [
        {
            "relationshipId": 1,
            "otherEntityName": "company",
            "relationshipType": "many-to-one",
            "otherEntityNameCapitalized": "Company",
            "otherEntityField": "name"
        }
    ],
    "fields": [
        {
            "fieldId": 1,
            "fieldName": "extCode",
            "fieldType": "String",
            "fieldNameCapitalized": "ExtCode",
            "fieldNameUnderscored": "ext_code"
        },
        {
            "fieldId": 2,
            "fieldName": "number",
            "fieldType": "Integer",
            "fieldNameCapitalized": "Number",
            "fieldNameUnderscored": "number"
        },
        {
            "fieldId": 3,
            "fieldName": "date",
            "fieldType": "DateTime",
            "fieldNameCapitalized": "Date",
            "fieldNameUnderscored": "date"
        }
    ],
    "fieldsContainOwnerManyToMany": false,
    "fieldsContainOneToMany": false,
    "fieldsContainLocalDate": false,
    "fieldsContainCustomTime": true,
    "fieldsContainBigDecimal": false,
    "fieldsContainDateTime": true,
    "changelogDate": "20150217211256"
}