id;ext_code;name;city_id
1;rs01;улица Зорге;3
2;rs02;проспект Нагибина;3
3;rs03;улица Ленина;3
4;rs04;улица Лесопарковая;3
5;rs05;переулок Лесозащитный;3
6;rs06;6 Линия;3
7;rs07;улица Мадояна;3
8;rs08;Гражданская улица;3
9;rs09;Днепродзержинский переулок;3
10;rs10;Долгая улица;3
11;rs11;Дубовского улица;3
12;rs12;Платова бульвар;3
13;rs13;Ратный переулок;3
14;rs14;Семашко переулок;3
15;rs15;Сиверса проспект;3
16;ms01;Академика Опарина улица;1
17;ms02;Астрадамский проезд;1
18;ms03;Зеленодольский проезд;1
19;ms04;Каширское шоссе;1
20;ms05;Киевская улица;1
21;ms06;Летняя аллея;1
22;ms07;Малая Бронная улица;1
23;ms08;Нагатинский бульвар;1
24;ms09;Норильская улица;1
25;ms10;Перовский проезд;1
26;ms11;Смоленская улица;1
27;spb01;Паровозная улица;2
28;spb02;улица Савушкина;2
29;spb03;Рабочий переулок;2
30;spb04;Витебская улица;2
31;spb05;Геологическая улица;2
32;spb06;Урюпин переулок;2
33;spb07;Старцева улица;2
34;spb08;Финский переулок;2
35;spb09;Диагональная улица;2
36;spb10;Торжковская улица;2
37;spb11;Графский проезд;2
38;spb12;Еленинский проезд;2